{"count": 20, "limit": 10, "pages": 2, "page": 1, "lists": [{"id": "94279262", "name": "Staff Picks: Horror Novels", "item_count": 10, "created": "2011-10-12T17:23:09Z", "updated": "2011-10-12T17:39:04Z", "list_type": {"id": "TOP_10", "name": "Top 10 List"}, "details_url": "http://euclidlibrary.bibliocommons.com/list/show/88095249/94279262"}, {"id": "90362154", "name": "Novel Destinations: Hollywood", "item_count": 10, "created": "2011-07-11T14:40:44Z", "updated": "2011-07-11T14:45:13Z", "list_type": {"id": "TOPIC_GUIDE", "name": "Topic Guide"}, "details_url": "http://euclidlibrary.bibliocommons.com/list/show/88095249/90362154"}, {"id": "90360775", "name": "Novel Destinations: Mexico", "item_count": 10, "created": "2011-07-11T14:18:53Z", "updated": "2011-07-11T14:30:12Z", "list_type": {"id": "TOPIC_GUIDE", "name": "Topic Guide"}, "details_url": "http://euclidlibrary.bibliocommons.com/list/show/88095249/90360775"}, {"id": "90360772", "name": "Novel Destinations: Paris", "item_count": 10, "created": "2011-07-11T14:11:00Z", "updated": "2011-07-11T14:45:43Z", "list_type": {"id": "TOPIC_GUIDE", "name": "Topic Guide"}, "details_url": "http://euclidlibrary.bibliocommons.com/list/show/88095249/90360772"}, {"id": "88631611", "name": "Novel Destinations: Train Travel", "item_count": 14, "created": "2011-06-04T14:23:28Z", "updated": "2011-06-04T14:30:11Z", "list_type": {"id": "TOPIC_GUIDE", "name": "Topic Guide"}, "details_url": "http://euclidlibrary.bibliocommons.com/list/show/88095249/88631611"}, {"id": "88631256", "name": "Novel Destinations: Recipe Road Trip", "item_count": 14, "created": "2011-06-04T14:08:33Z", "updated": "2011-06-04T14:15:02Z", "list_type": {"id": "GENRE_GUIDE", "name": "Genre Guide"}, "details_url": "http://euclidlibrary.bibliocommons.com/list/show/88095249/88631256"}, {"id": "88541016", "name": "Novel Destinations: Steampunk Universe", "item_count": 16, "created": "2011-06-02T15:05:45Z", "updated": "2011-06-02T16:13:06Z", "list_type": {"id": "GENRE_GUIDE", "name": "Genre Guide"}, "details_url": "http://euclidlibrary.bibliocommons.com/list/show/88095249/88541016"}, {"id": "88540149", "name": "Novel Destinations: Route 66", "item_count": 13, "created": "2011-06-02T14:44:02Z", "updated": "2011-06-02T15:03:45Z", "list_type": {"id": "TOPIC_GUIDE", "name": "Topic Guide"}, "details_url": "http://euclidlibrary.bibliocommons.com/list/show/88095249/88540149"}, {"id": "88539491", "name": "Euclid Staff Picks: Drama in the Church", "item_count": 11, "created": "2011-06-02T14:25:00Z", "updated": "2011-06-02T14:34:15Z", "list_type": {"id": "GENRE_GUIDE", "name": "Genre Guide"}, "details_url": "http://euclidlibrary.bibliocommons.com/list/show/88095249/88539491"}, {"id": "88166643", "name": "Euclid Staff Picks: the Beat Generation", "item_count": 9, "created": "2011-05-26T15:02:28Z", "updated": "2011-05-26T15:05:52Z", "list_type": {"id": "TOPIC_GUIDE", "name": "Topic Guide"}, "details_url": "http://euclidlibrary.bibliocommons.com/list/show/88095249/88166643"}]}