{"count": 2445, "limit": 10, "pages": 245, "page": 1, "titles": [{"id": "6107584048", "title": "Star Wars", "sub_title": "Blast Off!", "format": {"id": "BK", "name": "Book"}, "details_url": "http://euclidlibrary.bibliocommons.com/item/show/6107584048", "availability": {"id": "AVAILABLE", "name": "Available"}, "isbns": ["9780756668792", "0756668794", "9780756666927", "0756666929"]}, {"id": "6064288048", "title": "Star Wars", "sub_title": "Clone Troopers in Action", "format": {"id": "BK", "name": "Book"}, "details_url": "http://euclidlibrary.bibliocommons.com/item/show/6064288048", "availability": {"id": "AVAILABLE", "name": "Available"}, "authors": [{"name": "Hibbert, Clare"}], "isbns": ["9780756668808", "0756668808", "9780756666910", "0756666910"]}, {"id": "5763487048", "title": "Star Wars", "sub_title": "Luke Skywalker's Amazing Story", "format": {"id": "BK", "name": "Book"}, "details_url": "http://euclidlibrary.bibliocommons.com/item/show/5763487048", "availability": {"id": "AVAILABLE", "name": "Available"}, "authors": [{"name": "Beecroft, Simon"}], "isbns": ["9780756645199", "0756645190"]}, {"id": "6020658048", "title": "Star Wars", "sub_title": "Join the Rebels", "format": {"id": "BK", "name": "Book"}, "details_url": "http://euclidlibrary.bibliocommons.com/item/show/6020658048", "availability": {"id": "AVAILABLE", "name": "Available"}, "authors": [{"name": "Saunders, Catherine"}], "isbns": ["9780756663124", "0756663121", "9780756663131"]}, {"id": "6180540048", "title": "Star Wars", "sub_title": "Ultimate Duels", "format": {"id": "BK", "name": "Book"}, "details_url": "http://euclidlibrary.bibliocommons.com/item/show/6180540048", "availability": {"id": "AVAILABLE", "name": "Available"}, "authors": [{"name": "Kent, Lindsay"}], "isbns": ["9780756682637", "0756682630", "9780756682620", "0756682622"]}, {"id": "6177111048", "title": "Star Wars", "sub_title": "The Adventures of Han Solo", "format": {"id": "BK", "name": "Book"}, "details_url": "http://euclidlibrary.bibliocommons.com/item/show/6177111048", "availability": {"id": "AVAILABLE", "name": "Available"}, "authors": [{"name": "Kent, Lindsay"}], "isbns": ["9780756682514", "0756682517", "9780756682521", "0756682525"]}, {"id": "5536696048", "title": "Star Wars", "sub_title": "The Force Unleashed", "format": {"id": "BK", "name": "Book"}, "details_url": "http://euclidlibrary.bibliocommons.com/item/show/5536696048", "availability": {"id": "AVAILABLE", "name": "Available"}, "authors": [{"name": "Williams, Sean"}], "isbns": ["9780345499028", "0345499026"]}, {"id": "6020657048", "title": "Star Wars", "sub_title": "Death Star Battles", "format": {"id": "BK", "name": "Book"}, "details_url": "http://euclidlibrary.bibliocommons.com/item/show/6020657048", "availability": {"id": "AVAILABLE", "name": "Available"}, "authors": [{"name": "Beecroft, Simon"}], "isbns": ["9780756663155", "0756663156", "9780756663148", "0756663148"]}, {"id": "6015423048", "title": "Star Wars", "sub_title": "A Scanimation Book", "format": {"id": "BK", "name": "Book"}, "details_url": "http://euclidlibrary.bibliocommons.com/item/show/6015423048", "availability": {"id": "AVAILABLE", "name": "Available"}, "authors": [{"name": "Seder, Rufus Butler"}], "isbns": ["9780761158462", "0761158464"]}, {"id": "5760172048", "title": "Star Wars", "sub_title": "The Clone Wars", "format": {"id": "DVD", "name": "DVD"}, "details_url": "http://euclidlibrary.bibliocommons.com/item/show/5760172048", "availability": {"id": "AVAILABLE", "name": "Available"}, "isbns": ["1419869353", "9781419869358"], "upcs": ["883929023653"]}]}